<svg xmlns="http://www.w3.org/2000/svg" viewbox="0 0 30 30" xmlns:xlink="http://www.w3.org/1999/xlink">
  <symbol id="arrow-circled--left" preserveAspectRatio="xMidYMid meet">
    <g id="arrow-circled" stroke="none" stroke-width="1" fill="none" fill-rule="evenodd">
      <path d="M15,0 C23.284,0 30,6.716 30,15 C30,23.284 23.284,30 15,30 C6.716,30 0,23.284 0,15 C0,6.716 6.716,0 15,0 Z M15,2 C7.8205695,2 2,7.8205695 2,15 C2,22.1794305 7.8205695,28 15,28 C22.1794305,28 28,22.1794305 28,15 C28,7.8205695 22.1794305,2 15,2 Z M12.5281309,15.2785463 C12.3335184,15.0839338 12.3341242,14.7618988 12.5281309,14.5678921 L17.7852967,9.32410508 C17.7852967,9.32410508 18.3680328,8.62958877 17.7404669,8.0016776 C17.112901,7.37376643 16.382071,7.92087937 16.382071,7.92087937 L10.4384084,13.864542 C9.85393206,14.4490183 9.8537957,15.3972837 10.4384084,15.9818964 L16.3276506,21.8172608 C16.3276506,21.8172608 17.0556163,22.5465968 17.6917842,21.9127433 C18.3279522,21.2788898 17.7331925,20.5031085 17.6782221,20.4666893 L12.5281309,15.2785463 Z" id="arrow-left--circled" fill="currentColor"></path>
    </g>
  </symbol>
  <symbol id="arrow-circled--up"><use xlink:href="#arrow-circled--left" transform="rotate(90 15 15)"></use></symbol>
  <symbol id="arrow-circled--right"><use xlink:href="#arrow-circled--left" transform="rotate(180 15 15)"></use></symbol>
  <symbol id="arrow-circled--down"><use xlink:href="#arrow-circled--left" transform="rotate(270 15 15)"></use></symbol>
</svg>